<?xml version="1.0" encoding="UTF-8"?>
<svg width="201.36mm" height="100.05mm" version="1.1" viewBox="0 0 201.3559265136718 100.0487289428711" xmlns="http://www.w3.org/2000/svg" xmlns:cc="http://creativecommons.org/ns#" xmlns:dc="http://purl.org/dc/elements/1.1/" xmlns:rdf="http://www.w3.org/1999/02/22-rdf-syntax-ns#">
<metadata>
<rdf:RDF>
<cc:Work rdf:about="">
<dc:format>image/svg+xml</dc:format>
<dc:type rdf:resource="http://purl.org/dc/dcmitype/StillImage"/>
<dc:title/>
</cc:Work>
</rdf:RDF>
</metadata>
<path d="m190.55 50.063c27.474 49.535-32.318 46.024-91.092 46.491-65.108 0.51704-114.32-4.5009-91.092-46.491 12.429-22.468 40.783-46.491 91.092-46.491 50.309 0 78.639 24.037 91.092 46.491z" fill="#447821" style="paint-order:stroke markers fill"/>
<path d="m158.97 27.641-122.51 3.6808c-0.22424-0.046481-0.45259-0.070201-0.68161-0.070796-1.8788-3.9118e-5 -3.402 1.523-3.4017 3.4017 0.0011036 0.60105 0.15604 1.3105 0.45629 1.8515-0.25176 0.0016248-0.41862 0.012511-0.45629 0.03824-1.8786 2.4626e-4 -3.4014 1.5232-3.4012 3.4017-3.9129e-5 1.8786 1.5227 3.4014 3.4012 3.4017 0.13563-8.619e-4 0.27109-0.009835 0.40565-0.026871-0.26414 0.40065-0.40515 0.86989-0.40565 1.3498 0.0010121 0.35663 0.079657 0.70878 0.23047 1.032-0.3911 0.44677-0.60716 1.0201-0.60822 1.6138 8.3136e-5 1.3567 1.0999 2.4566 2.4567 2.4567 0.79009-0.001626 1.5312-0.38314 1.9916-1.0252 0.033059 0.062221 0.068042 0.1234 0.1049 0.18345-0.010994 0.091238-0.016859 0.18302-0.01757 0.27493 8.3136e-5 1.3567 1.0999 2.4566 2.4567 2.4567 0.67576-3.5358e-4 1.3216-0.27905 1.7854-0.77048 0.34684 1.5541 1.7253 2.6596 3.3176 2.6609 0.0029286-1.6847e-4 0.0058567-3.4073e-4 0.0087848-5.1675e-4 -0.2527 0.39515-0.387 0.85438-0.38705 1.3234 8.3136e-5 1.357 1.1002 2.4569 2.4572 2.4567 1.3093-6.9259e-4 2.388-1.028 2.4525-2.3357 0.19405-0.045786 0.38182-0.11502 0.55914-0.20619-0.11665 0.39586-0.17633 0.80633-0.17725 1.219 7.4236e-4 0.85822 0.25553 1.697 0.73225 2.4107-0.46783 0.46108-0.73154 1.0903-0.73225 1.7472 8.3136e-5 1.357 1.1002 2.4569 2.4572 2.4567 1.2991-4.5457e-4 2.3733-1.0122 2.4515-2.3089 0.39399-0.053477 0.77876-0.16076 1.1436-0.31885 0.15438 0.0183 0.30964 0.028305 0.46508 0.029972 0.63518-0.0026362 1.2621-0.14446 1.8366-0.41547 0.38605 0.2388 0.83073 0.36597 1.2847 0.36742 0.31252-5.3194e-4 0.62208-0.060689 0.91209-0.17725 0.64346 0.82589 1.6314 1.3095 2.6783 1.311 0.26109-0.0011556 0.5212-0.032366 0.77514-0.093016-0.011785 0.093606-0.01817 0.18781-0.01912 0.28215 8.3136e-5 1.3567 1.0999 2.4566 2.4567 2.4567 0.40976-1.1831e-5 0.813-0.10251 1.173-0.29818 0.50275 1.3163 1.7649 2.1863 3.1739 2.1879 0.84136-0.0014137 1.6524-0.31459 2.2763-0.87901 0.64515 0.7944 1.6136 1.2562 2.637 1.2573 1.1621 4.8775e-5 2.2438-0.59314 2.8686-1.573 0.8071 0.76644 1.8775 1.194 2.9905 1.1947 0.71632-4.94e-4 1.4214-0.17801 2.0526-0.51675 0.62605 0.57432 1.4443 0.89359 2.2939 0.89502 1.231-0.0017301 2.3649-0.66833 2.9651-1.743 0.19007 0.063642 0.38433 0.11406 0.58136 0.15089 0.63989 0.87224 1.6565 1.3881 2.7384 1.3896 0.60502-0.0015343 1.1987-0.1644 1.7198-0.4718 0.45862 0.65809 1.2096 1.0509 2.0117 1.0521 0.65693-8.434e-4 1.2861-0.26474 1.7472-0.73275 0.98125-0.13441 1.7858-0.84486 2.0407-1.8019 0.41613 0.17544 0.86303 0.26625 1.3146 0.26717 0.69002-1.1499e-4 1.3637-0.21008 1.9316-0.60203 0.259 0.63764 0.77358 1.1374 1.4185 1.3777 0.46175 0.47042 1.0931 0.73559 1.7523 0.73585 0.0027564-1.6761e-4 0.0055123-3.3985e-4 0.0082681-5.1675e-4 0.63068 0.94439 1.691 1.5118 2.8268 1.5126 1.8788 3.9118e-5 3.402-1.523 3.4017-3.4017-3.2438e-4 -0.12051-0.0070516-0.24091-0.020154-0.3607 0.11486 0.048585 0.23175 0.092206 0.35036 0.13074 0.24766 0.28138 0.54011 0.5199 0.86557 0.7059 0.64269 0.69055 1.5433 1.0832 2.4866 1.0842 0.49712-0.0016587 0.98784-0.11226 1.4376-0.324 0.64036 0.65949 1.5204 1.0317 2.4396 1.032 1.4378-0.0035218 2.718-0.91066 3.1982-2.266 0.63002 0.59554 1.4636 0.92807 2.3306 0.92965 1.0234-0.0010982 1.9919-0.46286 2.637-1.2573 0.62396 0.56443 1.4349 0.87759 2.2763 0.87901 1.409-0.0016157 2.6712-0.87169 3.1739-2.1879 0.36004 0.19566 0.76329 0.29816 1.173 0.29818 1.089-8.8666e-4 2.0474-0.71852 2.3549-1.7632 0.2935 0.081504 0.59663 0.12322 0.90121 0.12402 1.403-0.0017889 2.6609-0.86473 3.1678-2.173 0.049225 0.0080496 0.098686 0.014598 0.14831 0.019637 0.57549 0.41468 1.2662 0.63909 1.9756 0.64182 0.67825-0.0011657 1.3407-0.20506 1.9022-0.58549 0.34684 0.14423 0.71093 0.24289 1.0831 0.29353 0.078226 1.2967 1.1524 2.3084 2.4515 2.3089 1.357 2.0227e-4 2.4571-1.0997 2.4572-2.4567-7.0701e-4 -0.65685-0.26442-1.2861-0.73225-1.7472 0.8239-1.7412 0.64833-0.90172 2.1957-0.88521 0.44161-0.0017167 0.88039-0.07072 1.3012-0.20464 0.023243 0.0010193 0.0465 0.0017084 0.069762 0.002067 1.1859-3.8481e-4 2.2023-0.84782 2.4159-2.0143 0.16179-0.28781 0.29024-0.59311 0.38293-0.91002 0.44333-0.27879 0.81628-0.65618 1.0898-1.1028 0.28667 0.078205 0.58237 0.11851 0.87952 0.11989 1.2731-1.6732e-4 2.4396-0.71122 3.0231-1.8427 1.0858-0.27802 1.8458-1.2557 1.8474-2.3766-0.0010001-0.35626-0.079467-0.70802-0.22996-1.0309 0.0020712-0.0022354 0.0041383-0.0044748 0.0062012-0.006718 0.35647 0.96376 1.2751 1.6039 2.3027 1.6045 1.3567-8.3136e-5 2.4566-1.0999 2.4567-2.4567-0.0010623-0.59377-0.21712-1.1671-0.60822-1.6138 0.15082-0.32318 0.22946-0.67531 0.23047-1.032-4.9201e-4 -0.4799-0.14151-0.94913-0.40565-1.3498 0.13456 0.017036 0.27003 0.02601 0.40565 0.026871 1.8786-2.4626e-4 3.4014-1.5232 3.4012-3.4017 3.9129e-5 -1.8786-1.5227-3.4014-3.4012-3.4017-0.20614 6.3589e-4 -0.41179 0.020008-0.61443 0.057877 0.39946-0.57096 0.61393-1.2508 0.61443-1.9477 3.9118e-5 -1.8788-1.523-3.402-3.4017-3.4017-0.68468 0.001261-1.353 0.2091-1.9177 0.59634-0.15663-1.0897-1.019-1.9421-2.1104-2.0862-0.10498-0.27397-0.23743-0.53662-0.39531-0.78392z" fill="#502d16" stroke-width=".26458" style="paint-order:stroke markers fill"/>
<ellipse cx="99.695" cy="34.753" rx="60.67" ry="20.58" fill="#28170b" style="paint-order:stroke markers fill"/>
<g transform="translate(-3.7349 -126.74)" clip-rule="evenodd" fill-rule="evenodd">
<path d="m78.944 165.87c-10.011-2.8185-2.5669-15.569 5.4721-10.325z" stroke="#000" stroke-linecap="round" stroke-width=".79375"/>
<path d="m123.42 154.59c7.9239-5.5724 15.084 7 5.8753 10.163z" stroke="#000" stroke-linecap="round" stroke-width=".79375"/>
<path d="m79.362 162.35c-1.3207-0.69948-2.2897-1.6495-1.4818-3.1789 0.74795-1.4159 2.1374-1.2622 3.4583-0.56268z" stroke-width=".26458"/>
<path d="m127.21 161.02c1.3207-0.69948 2.2897-1.6495 1.4818-3.1789-0.74795-1.4159-2.1374-1.2622-3.4583-0.56268z" stroke-width=".26458"/>
<path transform="scale(.26458)" d="m391.57 564.25c-40.826 3.2336-78.761 12.714-92.826 54.658-6.9583 20.751-6.9398 41.77-5.5195 62.9h202.48c-0.45226-25.793-2.3181-51.318-12.236-75.697-18.511-36.436-54.019-41.861-91.898-41.861z" stroke="#000" stroke-linecap="round" stroke-width="3"/>
<path d="m105.37 162.76c1.7994 10.473 18.897 7.7038 16.442-2.8586-2.2022-9.4716-17.04-6.8498-16.442 2.8586" fill="#333" stroke="#000" stroke-linecap="round" stroke-width=".76943"/>
<path d="m84.939 164.45c2.3322 9.1175 16.912 6.7832 16.363-2.3626-0.65846-10.953-18.592-8.8399-16.363 2.3626" fill="#333" stroke="#000" stroke-linecap="round" stroke-width=".7465"/>
<path d="m107.43 175.33c0.0076372 1.3616 0.30898 2.8902 0.0518 4.3387-0.34716 0.65693-1.0282 0.72641-1.6153 0.99187-0.81187-0.1275-1.4946-0.66125-1.8201-1.4216-0.20836-1.6533 0.0777-3.254 0.13033-4.908z" fill="#4d4d4d" stroke="#000" stroke-linecap="round" stroke-width=".79375"/>
<ellipse cx="88.96" cy="162.97" rx="2.462" ry="2.6699" stroke-width=".26458"/>
<ellipse cx="90.08" cy="163.57" rx=".58043" ry=".67854" fill="#333" stroke-width=".26458"/>
<ellipse cx="109.59" cy="162.3" rx="2.421" ry="2.6699" stroke-width=".26458"/>
<ellipse cx="110.69" cy="162.91" rx=".5708" ry=".67854" fill="#333" stroke-width=".26458"/>
<path d="m100.4 175.18c-1.0742 2.6064 0.59902 7.8184 3.5136 3.9741-0.20836-1.6533 0.0777-3.254 0.13033-4.908z" fill="#4d4d4d" stroke="#000" stroke-linecap="round" stroke-width=".79375"/>
<path d="m100.77 170.16c-2.0021 0.17088-3.6386 2.5542-2.5976 4.4397 1.3785 2.4974 4.4555-0.22091 6.3719 0.033744 2.2057 0.045214 4.0129 2.335 5.7844 0.4139 1.9702-2.1367-0.84823-4.2177-3.0511-5.148z" fill="#1a1a1a" stroke="#231f20" stroke-linecap="round" stroke-width=".79375"/>
<path d="m100.51 170.06c-0.14826-3.4726 6.4647-3.9068 7.2457-1 0.779 2.9-6.9201 3.5735-7.2457 1-0.25983-2.0551 0 0 0 0z" stroke-width=".26458"/>
</g>
<path d="m111.92 9.6226a3.4017 3.4017 0 0 0 -2.8268 1.5126 2.4568 2.4568 0 0 0 -0.0082681 -5.1675e-4 2.4568 2.4568 0 0 0 -2.4567 2.4567 2.4568 2.4568 0 0 0 0.027905 0.35448 3.4017 3.4017 0 0 0 -2.6736 -1.2996 3.4017 3.4017 0 0 0 -2.4944 1.095 3.4017 3.4017 0 0 0 -0.23099 -0.29765 2.4568 2.4568 0 0 0 0.07958 -0.60822 2.4568 2.4568 0 0 0 -2.4567 -2.4567 2.4568 2.4568 0 0 0 -2.4567 2.4567 2.4568 2.4568 0 0 0 0.019637 0.28731 3.4017 3.4017 0 0 0 -0.29662 0.29456 4.3468 4.3468 0 0 0 -2.9363 -1.1488 4.3468 4.3468 0 0 0 -1.3813 0.23099 3.4017 3.4017 0 0 0 -2.9651 -1.743 3.4017 3.4017 0 0 0 -2.2939 0.89502 4.3468 4.3468 0 0 0 -2.0526 -0.51675 4.3468 4.3468 0 0 0 -2.9905 1.1947 3.4017 3.4017 0 0 0 -2.8686 -1.573 3.4017 3.4017 0 0 0 -2.637 1.2573 3.4017 3.4017 0 0 0 -2.2763 -0.87901 3.4017 3.4017 0 0 0 -3.1739 2.1879 2.4568 2.4568 0 0 0 -1.173 -0.29818 2.4568 2.4568 0 0 0 -2.4567 2.4567 2.4568 2.4568 0 0 0 0.01912 0.28215 3.4017 3.4017 0 0 0 -0.77514 -0.093016 3.4017 3.4017 0 0 0 -2.6783 1.311 2.4568 2.4568 0 0 0 -0.91209 -0.17725 2.4568 2.4568 0 0 0 -2.0412 1.0914 4.3468 4.3468 0 0 0 -2.6887 -1.4283 2.4568 2.4568 0 0 0 -2.4515 -2.3089 2.4568 2.4568 0 0 0 -2.4572 2.4567 2.4568 2.4568 0 0 0 0.73225 1.7472 4.3468 4.3468 0 0 0 -0.73225 2.4107 4.3468 4.3468 0 0 0 0.17725 1.219 2.4568 2.4568 0 0 0 -0.55914 -0.20619 2.4568 2.4568 0 0 0 -2.4525 -2.3357 2.4568 2.4568 0 0 0 -2.4572 2.4567 2.4568 2.4568 0 0 0 0.38705 1.3234 3.4017 3.4017 0 0 0 -0.0087848 -5.1675e-4 3.4017 3.4017 0 0 0 -3.3176 2.6609 2.4568 2.4568 0 0 0 -1.7854 -0.77048 2.4568 2.4568 0 0 0 -2.4567 2.4567 2.4568 2.4568 0 0 0 0.22996 1.0309 2.4568 2.4568 0 0 0 -0.0062012 0.006718 2.4568 2.4568 0 0 0 -2.3027 -1.6045 2.4568 2.4568 0 0 0 -2.4567 2.4567 2.4568 2.4568 0 0 0 0.60822 1.6138 2.4568 2.4568 0 0 0 -0.23047 1.032 2.4568 2.4568 0 0 0 0.40565 1.3498 3.4017 3.4017 0 0 0 -0.40565 -0.026871 3.4017 3.4017 0 0 0 -3.4012 3.4017 3.4017 3.4017 0 0 0 3.4012 3.4017 3.4017 3.4017 0 0 0 0.61443 -0.057877 3.4017 3.4017 0 0 0 -0.61443 1.9477 3.4017 3.4017 0 0 0 3.4017 3.4017 3.4017 3.4017 0 0 0 1.9177 -0.59634 2.4568 2.4568 0 0 0 2.4293 2.1079 2.4568 2.4568 0 0 0 1.3327 -0.39325 2.4568 2.4568 0 0 0 -0.0098183 0.20464 2.4568 2.4568 0 0 0 2.4567 2.4567 2.4568 2.4568 0 0 0 1.7699 -0.75757 2.4568 2.4568 0 0 0 1.834 1.8257 4.3468 4.3468 0 0 0 -0.012919 0.25476 4.3468 4.3468 0 0 0 4.3465 4.3465 4.3468 4.3468 0 0 0 3.4009 -1.6469 2.4568 2.4568 0 0 0 1.8908 0.8914 2.4568 2.4568 0 0 0 2.1957 -1.3606 2.4568 2.4568 0 0 0 0.49971 0.49609 3.4017 3.4017 0 0 0 -0.23874 1.2423 3.4017 3.4017 0 0 0 3.4017 3.4017 3.4017 3.4017 0 0 0 2.8453 -1.543 2.4568 2.4568 0 0 0 0.36742 0.031006 2.4568 2.4568 0 0 0 1.2717 -0.35761 2.4568 2.4568 0 0 0 1.7523 0.73585 2.4568 2.4568 0 0 0 2.4474 -2.2686 3.4017 3.4017 0 0 0 0.0093016 5.1675e-4 3.4017 3.4017 0 0 0 0.71828 -0.081131 2.4568 2.4568 0 0 0 0.45992 0.56842 2.4568 2.4568 0 0 0 -0.044442 0.45786 2.4568 2.4568 0 0 0 2.4572 2.4567 2.4568 2.4568 0 0 0 1.5864 -0.58446 3.4017 3.4017 0 0 0 3.1377 2.0965 3.4017 3.4017 0 0 0 3.1739 -2.1885 2.4568 2.4568 0 0 0 1.173 0.29818 2.4568 2.4568 0 0 0 1.5069 -0.51778 2.4568 2.4568 0 0 0 1.8949 0.89605 2.4568 2.4568 0 0 0 1.7353 -0.71984 3.4017 3.4017 0 0 0 0.80768 0.27493 2.4568 2.4568 0 0 0 -0.086298 0.63354 2.4568 2.4568 0 0 0 2.4567 2.4572 2.4568 2.4568 0 0 0 2.4572 -2.4572 2.4568 2.4568 0 0 0 -1.2826 -2.1575 3.4017 3.4017 0 0 0 0.45992 -1.1451 4.3468 4.3468 0 0 0 4.0354 2.7358 4.3468 4.3468 0 0 0 3.6105 -1.9306 3.4017 3.4017 0 0 0 3.3816 3.0649 3.4017 3.4017 0 0 0 2.6934 -1.3307 3.4017 3.4017 0 0 0 3.3543 2.8421 3.4017 3.4017 0 0 0 3.3874 -3.1099 3.4017 3.4017 0 0 0 2.5466 -2.4603 3.4017 3.4017 0 0 0 2.0035 0.65679 3.4017 3.4017 0 0 0 3.022 -1.8474 3.4017 3.4017 0 0 0 3.0257 1.8474 3.4017 3.4017 0 0 0 3.0779 -1.9621 2.4568 2.4568 0 0 0 1.8355 0.82784 2.4568 2.4568 0 0 0 0.19275 -0.0077514 3.4017 3.4017 0 0 0 2.8313 1.5198 3.4017 3.4017 0 0 0 3.193 -2.2407 3.4017 3.4017 0 0 0 2.0985 0.72916 3.4017 3.4017 0 0 0 3.2813 -2.5202 4.3468 4.3468 0 0 0 1.4433 0.25218 4.3468 4.3468 0 0 0 4.3465 -4.347 4.3468 4.3468 0 0 0 -0.014469 -0.33745 3.4017 3.4017 0 0 0 2.6604 1.2826 3.4017 3.4017 0 0 0 2.9001 -1.6319 3.4017 3.4017 0 0 0 0.87952 0.11989 3.4017 3.4017 0 0 0 3.4017 -3.4012 3.4017 3.4017 0 0 0 -1.8536 -3.0252 3.4017 3.4017 0 0 0 3.3512 -3.1088 3.4017 3.4017 0 0 0 2.6604 -3.3155 3.4017 3.4017 0 0 0 -3.4017 -3.4017 3.4017 3.4017 0 0 0 -2.2737 0.87695 3.4017 3.4017 0 0 0 0.0062012 -0.12092 3.4017 3.4017 0 0 0 -1.8831 -3.0395 4.3468 4.3468 0 0 0 1.8831 -3.575 4.3468 4.3468 0 0 0 -4.347 -4.347 4.3468 4.3468 0 0 0 -2.6143 0.87952 3.4017 3.4017 0 0 0 -3.2443 -2.391 3.4017 3.4017 0 0 0 -1.958 0.62475 2.4568 2.4568 0 0 0 -1.633 -0.62475 2.4568 2.4568 0 0 0 -1.465 0.48783 3.4017 3.4017 0 0 0 -1.0655 -0.41857 3.4017 3.4017 0 0 0 -3.3279 -2.7151 3.4017 3.4017 0 0 0 -2.654 1.2785 3.4017 3.4017 0 0 0 -3.3935 -3.1683 3.4017 3.4017 0 0 0 -2.5352 1.1394 3.4017 3.4017 0 0 0 -0.11059 -0.0056842 3.4017 3.4017 0 0 0 -2.0014 0.65629 3.4017 3.4017 0 0 0 -3.2903 -2.5461 3.4017 3.4017 0 0 0 -0.024804 0.0010335 3.4017 3.4017 0 0 0 -3.3766 -3.0252 3.4017 3.4017 0 0 0 -3.3821 3.0443 4.3468 4.3468 0 0 0 -2.4768 -0.77617 4.3468 4.3468 0 0 0 -1.7208 0.3607 3.4017 3.4017 0 0 0 0.020154 -0.3607 3.4017 3.4017 0 0 0 -3.4017 -3.4017zm0.81544 7.0646a4.3468 4.3468 0 0 0 -0.038756 0.27233 3.4017 3.4017 0 0 0 -0.075448 -0.086298 2.4568 2.4568 0 0 0 0.1142 -0.18603zm8.6277 0.51056a3.4017 3.4017 0 0 0 1.5182 0.36224 3.4017 3.4017 0 0 0 0.024804 -0.0010335 3.4017 3.4017 0 0 0 3.3766 3.0247 3.4017 3.4017 0 0 0 2.0014 -0.65576 3.4017 3.4017 0 0 0 3.2903 2.5461 3.4017 3.4017 0 0 0 2.5362 -1.14 3.4017 3.4017 0 0 0 0.10955 0.0056842 3.4017 3.4017 0 0 0 0.36999 -0.024288 2.4568 2.4568 0 0 0 2.2758 1.5363 2.4568 2.4568 0 0 0 1.2852 -0.36536 3.4017 3.4017 0 0 0 1.4345 0.67386 3.4017 3.4017 0 0 0 2.976 2.6963 3.4017 3.4017 0 0 0 -0.025838 0.39687 3.4017 3.4017 0 0 0 3.4017 3.4017 3.4017 3.4017 0 0 0 3.3848 -3.067 2.4568 2.4568 0 0 0 2.2846 1.5549 2.4568 2.4568 0 0 0 0.87486 -0.16175 4.3468 4.3468 0 0 0 1.7275 1.0718 3.4017 3.4017 0 0 0 -1.0904 2.4918 3.4017 3.4017 0 0 0 3.4017 3.4017 3.4017 3.4017 0 0 0 0.53432 -0.044442 3.4017 3.4017 0 0 0 -0.82991 1.5771 3.4017 3.4017 0 0 0 -1.5942 -0.39893 3.4017 3.4017 0 0 0 -3.4017 3.4017 3.4017 3.4017 0 0 0 1.3534 2.7109 3.4017 3.4017 0 0 0 -1.7316 2.9585 3.4017 3.4017 0 0 0 5.1675e-4 0.015503 4.3468 4.3468 0 0 0 -3.5909 -1.9053 4.3468 4.3468 0 0 0 -4.3386 4.1822 3.4017 3.4017 0 0 0 -0.38602 -0.024288 3.4017 3.4017 0 0 0 -3.193 2.2412 3.4017 3.4017 0 0 0 -2.0985 -0.72916 3.4017 3.4017 0 0 0 -1.9575 0.62425 2.4568 2.4568 0 0 0 -1.0666 -0.24649 2.4568 2.4568 0 0 0 -1.9554 0.97461 3.4017 3.4017 0 0 0 -2.958 -1.7306 3.4017 3.4017 0 0 0 -3.022 1.8474 3.4017 3.4017 0 0 0 -3.0257 -1.8474 3.4017 3.4017 0 0 0 -3.2882 2.5466 3.4017 3.4017 0 0 0 -2.0035 -0.65679 3.4017 3.4017 0 0 0 -3.3874 3.1099 3.4017 3.4017 0 0 0 -1.9518 1.2443 3.4017 3.4017 0 0 0 -3.3543 -2.8421 3.4017 3.4017 0 0 0 -2.6479 1.2707 4.3468 4.3468 0 0 0 -4.3444 -4.2947 4.3468 4.3468 0 0 0 -3.5578 1.8531 2.4568 2.4568 0 0 0 -1.7337 -0.71881 2.4568 2.4568 0 0 0 -1.7833 0.77101 3.4017 3.4017 0 0 0 -0.29559 -0.014986 3.4017 3.4017 0 0 0 -3.2027 2.2681 2.4568 2.4568 0 0 0 -0.0098183 -5.1675e-4 2.4568 2.4568 0 0 0 -1.5074 0.51778 2.4568 2.4568 0 0 0 -1.8944 -0.89555 2.4568 2.4568 0 0 0 -1.9606 0.98133 3.4017 3.4017 0 0 0 -2.3864 -0.98133 3.4017 3.4017 0 0 0 -2.7397 1.3916 2.4568 2.4568 0 0 0 -0.32813 -0.36742 2.4568 2.4568 0 0 0 0.044442 -0.45733 2.4568 2.4568 0 0 0 -1.9074 -2.3926 3.4017 3.4017 0 0 0 -3.3842 -3.0882 3.4017 3.4017 0 0 0 -3.4017 3.4017 3.4017 3.4017 0 0 0 0.12196 0.90071 2.4568 2.4568 0 0 0 -0.44854 0.2129 2.4568 2.4568 0 0 0 -1.7523 -0.73535 2.4568 2.4568 0 0 0 -1.1772 0.30334 3.4017 3.4017 0 0 0 -1.2831 -0.59427 2.4568 2.4568 0 0 0 -2.4531 -2.3549 2.4568 2.4568 0 0 0 -2.1957 1.3601 2.4568 2.4568 0 0 0 -1.9621 -0.98236 2.4568 2.4568 0 0 0 -1.0826 0.2527 4.3468 4.3468 0 0 0 -4.2089 -3.2768 4.3468 4.3468 0 0 0 -1.7213 0.3612 2.4568 2.4568 0 0 0 -1.8128 -1.1048 2.4568 2.4568 0 0 0 0.69918 -1.713 2.4568 2.4568 0 0 0 -2.4567 -2.4567 2.4568 2.4568 0 0 0 -0.57049 0.069762 3.4017 3.4017 0 0 0 0.0036173 -0.069762 3.4017 3.4017 0 0 0 -3.4017 -3.4017 3.4017 3.4017 0 0 0 -3.4017 3.4017 3.4017 3.4017 0 0 0 0.12196 0.90071 2.4568 2.4568 0 0 0 -0.13177 0.051159 3.4017 3.4017 0 0 0 0.0098183 -0.19585 3.4017 3.4017 0 0 0 -3.4017 -3.4017 3.4017 3.4017 0 0 0 -0.61443 0.057877 3.4017 3.4017 0 0 0 0.61443 -1.9477 3.4017 3.4017 0 0 0 -0.87383 -2.2706 2.4568 2.4568 0 0 0 2.3771 -2.282 2.4568 2.4568 0 0 0 1.3317 0.39481 2.4568 2.4568 0 0 0 2.4567 -2.4567 2.4568 2.4568 0 0 0 -0.22944 -1.0304 2.4568 2.4568 0 0 0 0.42116 -0.68005 3.4017 3.4017 0 0 0 2.8323 1.5213 3.4017 3.4017 0 0 0 3.4017 -3.4017 3.4017 3.4017 0 0 0 -0.0025838 -0.069762 2.4568 2.4568 0 0 0 0.56946 0.069762 2.4568 2.4568 0 0 0 2.4567 -2.4567 2.4568 2.4568 0 0 0 -0.0041341 -0.11369 4.3468 4.3468 0 0 0 2.8389 1.0583 4.3468 4.3468 0 0 0 4.2809 -3.6216 2.4568 2.4568 0 0 0 1.0108 0.22014 2.4568 2.4568 0 0 0 1.1431 -0.28421 3.4017 3.4017 0 0 0 2.4474 1.0402 3.4017 3.4017 0 0 0 3.0427 -1.8903 2.4568 2.4568 0 0 0 1.3043 0.37827 2.4568 2.4568 0 0 0 2.4567 -2.4567 2.4568 2.4568 0 0 0 -0.097151 -0.68058 3.4017 3.4017 0 0 0 0.85316 0.11317 3.4017 3.4017 0 0 0 1.9487 -0.61803 3.4017 3.4017 0 0 0 -0.058911 0.61803 3.4017 3.4017 0 0 0 3.4017 3.4017 3.4017 3.4017 0 0 0 3.1713 -2.1818 4.3468 4.3468 0 0 0 2.3094 0.67023 4.3468 4.3468 0 0 0 2.4629 -0.77152 4.3468 4.3468 0 0 0 4.3402 4.1727 4.3468 4.3468 0 0 0 4.0814 -2.8665 4.3468 4.3468 0 0 0 1.449 -1.3792 2.4568 2.4568 0 0 0 2.4071 1.9782 2.4568 2.4568 0 0 0 2.4536 -2.3859 3.4017 3.4017 0 0 0 2.2712 0.87383 3.4017 3.4017 0 0 0 1.5394 -0.36845 2.4568 2.4568 0 0 0 0.91725 0.17931 2.4568 2.4568 0 0 0 0.19585 -0.0087848 3.4017 3.4017 0 0 0 3.3951 3.2221 3.4017 3.4017 0 0 0 3.3377 -2.7503 4.3468 4.3468 0 0 0 3.6544 1.9942 4.3468 4.3468 0 0 0 4.347 -4.347 4.3468 4.3468 0 0 0 -0.0062012 -0.17311zm36.586 23.02a3.4017 3.4017 0 0 0 0.046508 0.02222 3.4017 3.4017 0 0 0 -0.05271 0.002067 3.4017 3.4017 0 0 0 0.0062012 -0.024288zm-109.84 4.1666a2.4568 2.4568 0 0 0 0.0062012 0.026871 2.4568 2.4568 0 0 0 -0.047024 -0.0041341 3.4017 3.4017 0 0 0 0.040825 -0.022737zm-1.5875 0.38965a3.4017 3.4017 0 0 0 0.0093016 5.1675e-4 3.4017 3.4017 0 0 0 0.01602 -5.1675e-4 2.4568 2.4568 0 0 0 -0.026355 0.01602 2.4568 2.4568 0 0 0 0.0010334 -0.01602zm3.7166 1.4976a2.4568 2.4568 0 0 0 0.015503 0.0025838 2.4568 2.4568 0 0 0 -0.012402 0.012919 2.4568 2.4568 0 0 0 -0.0031006 -0.015503z" fill="#784421" stroke-width=".26458" style="paint-order:stroke markers fill"/>
<circle cx="22.057" cy="43.443" r="1.47" fill="#502d16" style="paint-order:stroke markers fill"/>
<circle cx="30.059" cy="55.093" r="1.9891" fill="#502d16" style="paint-order:stroke markers fill"/>
<circle cx="49.95" cy="70.643" r="1.9891" fill="#502d16" style="paint-order:stroke markers fill"/>
<circle cx="19.117" cy="57.613" r=".66817" fill="#502d16" style="paint-order:stroke markers fill"/>
<circle cx="35.687" cy="60.553" r="1.47" fill="#502d16" style="paint-order:stroke markers fill"/>
<circle cx="55.332" cy="79.663" r=".53454" fill="#502d16" style="paint-order:stroke markers fill"/>
<circle cx="69.497" cy="78.853" r=".80181" fill="#502d16" style="paint-order:stroke markers fill"/>
<circle cx="57.336" cy="67.493" r="1.47" fill="#502d16" style="paint-order:stroke markers fill"/>
<circle cx="84.598" cy="79.523" r="1.47" fill="#502d16" style="paint-order:stroke markers fill"/>
<circle cx="93.417" cy="84.603" r=".66817" fill="#502d16" style="paint-order:stroke markers fill"/>
<circle cx="73.907" cy="72.043" r="1.47" fill="#502d16" style="paint-order:stroke markers fill"/>
<circle cx="105.18" cy="76.313" r="1.47" fill="#502d16" style="paint-order:stroke markers fill"/>
<circle cx="116.67" cy="73.113" r="1.47" fill="#502d16" style="paint-order:stroke markers fill"/>
<circle cx="94.487" cy="74.713" r="1.47" fill="#502d16" style="paint-order:stroke markers fill"/>
<circle cx="135.78" cy="74.843" r=".80181" fill="#502d16" style="paint-order:stroke markers fill"/>
<circle cx="83.999" cy="70.493" r="1.9891" fill="#502d16" style="paint-order:stroke markers fill"/>
<circle cx="133.54" cy="66.263" r="1.9891" fill="#502d16" style="paint-order:stroke markers fill"/>
<circle cx="124.56" cy="77.253" r=".80181" fill="#502d16" style="paint-order:stroke markers fill"/>
<circle cx="154.06" cy="59.803" r="1.9891" fill="#502d16" style="paint-order:stroke markers fill"/>
<circle cx="171.06" cy="41.703" r=".80181" fill="#502d16" style="paint-order:stroke markers fill"/>
<circle cx="171.48" cy="50.913" r="1.9891" fill="#502d16" style="paint-order:stroke markers fill"/>
<circle cx="165.99" cy="65.493" r="1.0691" fill="#502d16" style="paint-order:stroke markers fill"/>
<circle cx="162.91" cy="58.143" r="1.47" fill="#502d16" style="paint-order:stroke markers fill"/>
<circle cx="153.96" cy="70.573" r=".53454" fill="#502d16" style="paint-order:stroke markers fill"/>
<rect width="201.36" height="100.05" fill="none" style="paint-order:stroke markers fill"/>
</svg>
